<?xml version="1.0" encoding="UTF-8" standalone="no"?>
<!-- Created with Inkscape (http://www.inkscape.org/) -->

<svg
   xmlns:dc="http://purl.org/dc/elements/1.1/"
   xmlns:cc="http://creativecommons.org/ns#"
   xmlns:rdf="http://www.w3.org/1999/02/22-rdf-syntax-ns#"
   xmlns:svg="http://www.w3.org/2000/svg"
   xmlns="http://www.w3.org/2000/svg"
   xmlns:sodipodi="http://sodipodi.sourceforge.net/DTD/sodipodi-0.dtd"
   xmlns:inkscape="http://www.inkscape.org/namespaces/inkscape"
   width="160.13077mm"
   height="117.99071mm"
   viewBox="0 0 160.13077 117.99071"
   version="1.1"
   id="svg8"
   inkscape:version="0.92.2 2405546, 2018-03-11"
   sodipodi:docname="logo.svg">
  <defs
     id="defs2">
    <filter
       style="color-interpolation-filters:sRGB"
       inkscape:label="Blur"
       id="filter953">
      <feGaussianBlur
         stdDeviation="3 3"
         result="blur"
         id="feGaussianBlur951" />
    </filter>
  </defs>
  <sodipodi:namedview
     id="base"
     pagecolor="#ffffff"
     bordercolor="#666666"
     borderopacity="1.0"
     inkscape:pageopacity="0.0"
     inkscape:pageshadow="2"
     inkscape:zoom="1.6530102"
     inkscape:cx="359.14705"
     inkscape:cy="210.46289"
     inkscape:document-units="mm"
     inkscape:current-layer="layer2"
     showgrid="false"
     fit-margin-top="0"
     fit-margin-left="0"
     fit-margin-right="0"
     fit-margin-bottom="0"
     inkscape:window-width="1916"
     inkscape:window-height="1037"
     inkscape:window-x="0"
     inkscape:window-y="39"
     inkscape:window-maximized="1" />
  <metadata
     id="metadata5">
    <rdf:RDF>
      <cc:Work
         rdf:about="">
        <dc:format>image/svg+xml</dc:format>
        <dc:type
           rdf:resource="http://purl.org/dc/dcmitype/StillImage" />
        <dc:title></dc:title>
      </cc:Work>
    </rdf:RDF>
  </metadata>
  <g
     inkscape:groupmode="layer"
     id="layer2"
     inkscape:label="Layer 2"
     transform="translate(-13.506837,-36.185974)">
    <g
       style="fill:#34bbd8;fill-opacity:0.976834;filter:url(#filter953)"
       id="g885">
      <path
         style="fill:#34bbd8;fill-opacity:0.976834;stroke:none;stroke-width:0.26458332px;stroke-linecap:butt;stroke-linejoin:miter;stroke-opacity:1"
         d="m 53.851107,129.94408 c 12.877399,3.17124 18.484679,-5.84474 26.785247,-10.67577 9.80032,-5.7039 15.329703,-11.71734 27.142586,-9.57 12.30485,2.2368 18.39032,16.20536 12.4293,24.35957 -8.55001,11.69575 -22.816148,10.58498 -25.557691,9.89537 -7.874842,-1.98083 -10.649183,-11.05627 -7.712294,-14.49337 5.811935,-6.80182 17.715535,-6.71599 14.284505,-0.38503 -0.66468,-6.25859 -10.555197,-2.73247 -11.272663,3.56091 -0.679999,5.96473 8.435623,8.41727 13.335383,5.25995 5.23185,-3.37132 13.59474,-11.18121 5.56189,-17.82436 -6.12714,-5.06713 -14.085996,-0.92556 -19.424007,0.86001 -5.339881,1.78619 -19.555821,13.61964 -30.406498,11.79769 -1.92921,-0.32394 -5.165758,-2.78497 -5.165758,-2.78497 z"
         id="path875"
         inkscape:connector-curvature="0"
         sodipodi:nodetypes="cssssscsssssc" />
      <path
         sodipodi:nodetypes="cssssscsssssc"
         inkscape:connector-curvature="0"
         id="path877"
         d="m 85.913799,104.6752 c 14.996261,0.25142 18.909601,-10.911831 26.845701,-18.204126 9.36999,-8.609865 13.95311,-16.498351 27.51799,-17.093641 14.12982,-0.62005 21.27051,12.164252 19.83464,23.335623 -2.10903,16.408694 -20.49943,17.296104 -24.55683,16.827814 -8.19445,-0.94577 -12.53057,-9.750825 -12.15084,-13.805648 0.93113,-9.942851 16.71052,-11.439768 14.52088,-3.726331 -2.30794,-6.621336 -10.17503,-1.821739 -9.38223,5.179379 0.75139,6.6355 11.13988,6.06784 17.49823,4.55316 9.54342,-2.273416 10.16627,-18.151809 -0.84346,-23.645129 -8.01911,-4.001147 -16.89547,4.746178 -22.3316,8.003257 -5.43804,3.258214 -18.13392,19.606812 -30.556012,20.316772 -2.208602,0.12623 -6.396469,-1.74113 -6.396469,-1.74113 z"
         style="fill:#34bbd8;fill-opacity:0.976834;stroke:none;stroke-width:0.29672676px;stroke-linecap:butt;stroke-linejoin:miter;stroke-opacity:1" />
      <path
         style="fill:#34bbd8;fill-opacity:0.976834;stroke:none;stroke-width:0.22634968px;stroke-linecap:butt;stroke-linejoin:miter;stroke-opacity:1"
         d="m 119.38655,110.28067 c 8.51871,2.14447 7.08675,15.03853 7.47566,17.57291 0.38891,2.53438 -2.15736,9.68304 9.61723,14.58326 10.60827,4.41483 20.92658,-2.2592 21.02531,-9.71733 0.15215,-11.49358 -0.96308,-16.92703 -7.38737,-19.86981 -4.32644,-1.98181 -11.74598,0.50381 -13.38233,4.97237 -3.39155,9.26169 6.12556,13.66788 8.21408,7.59124 -4.11081,3.52615 -7.01026,-3.13061 -3.87063,-7.36788 2.97567,-4.01599 7.85131,-0.81679 9.90692,3.41202 2.18763,4.50039 2.04432,17.46532 -5.79524,17.6049 -15.29297,0.10575 -14.92823,-5.70886 -15.72821,-13.11372 -1.69172,-15.659 -6.88712,-15.78077 -10.07542,-15.66796 z"
         id="path879"
         inkscape:connector-curvature="0"
         sodipodi:nodetypes="czssascsscsc" />
      <text
         xml:space="preserve"
         style="font-style:normal;font-weight:normal;font-size:20.68217659px;line-height:1.25;font-family:sans-serif;letter-spacing:0px;word-spacing:0px;fill:#34bbd8;fill-opacity:0.976834;stroke:none;stroke-width:0.51705444"
         x="-62.627071"
         y="132.37999"
         id="text883"
         transform="rotate(-39.428869)"><tspan
           sodipodi:role="line"
           id="tspan881"
           x="-62.627071"
           y="132.37999"
           style="fill:#34bbd8;fill-opacity:0.976834;stroke-width:0.51705444">Get Some Air</tspan></text>
    </g>
    <g
       id="g906"
       style="fill:#ffffff;fill-opacity:0.97683399">
      <path
         sodipodi:nodetypes="cssssscsssssc"
         inkscape:connector-curvature="0"
         id="path881"
         d="m 53.851107,129.94408 c 12.877399,3.17124 18.484679,-5.84474 26.785247,-10.67577 9.80032,-5.7039 15.329703,-11.71734 27.142586,-9.57 12.30485,2.2368 18.39032,16.20536 12.4293,24.35957 -8.55001,11.69575 -22.816148,10.58498 -25.557691,9.89537 -7.874842,-1.98083 -10.649183,-11.05627 -7.712294,-14.49337 5.811935,-6.80182 17.715535,-6.71599 14.284505,-0.38503 -0.66468,-6.25859 -10.555197,-2.73247 -11.272663,3.56091 -0.679999,5.96473 8.435623,8.41727 13.335383,5.25995 5.23185,-3.37132 13.59474,-11.18121 5.56189,-17.82436 -6.12714,-5.06713 -14.085996,-0.92556 -19.424007,0.86001 -5.339881,1.78619 -19.555821,13.61964 -30.406498,11.79769 -1.92921,-0.32394 -5.165758,-2.78497 -5.165758,-2.78497 z"
         style="fill:#ffffff;fill-opacity:0.97683399;stroke:none;stroke-width:0.26458332px;stroke-linecap:butt;stroke-linejoin:miter;stroke-opacity:1" />
      <path
         style="fill:#ffffff;fill-opacity:0.97683399;stroke:none;stroke-width:0.29672676px;stroke-linecap:butt;stroke-linejoin:miter;stroke-opacity:1"
         d="m 85.913799,104.6752 c 14.996261,0.25142 18.909601,-10.911831 26.845701,-18.204126 9.36999,-8.609865 13.95311,-16.498351 27.51799,-17.093641 14.12982,-0.62005 21.27051,12.164252 19.83464,23.335623 -2.10903,16.408694 -20.49943,17.296104 -24.55683,16.827814 -8.19445,-0.94577 -12.53057,-9.750825 -12.15084,-13.805648 0.93113,-9.942851 16.71052,-11.439768 14.52088,-3.726331 -2.30794,-6.621336 -10.17503,-1.821739 -9.38223,5.179379 0.75139,6.6355 11.13988,6.06784 17.49823,4.55316 9.54342,-2.273416 10.16627,-18.151809 -0.84346,-23.645129 -8.01911,-4.001147 -16.89547,4.746178 -22.3316,8.003257 -5.43804,3.258214 -18.13392,19.606812 -30.556012,20.316772 -2.208602,0.12623 -6.396469,-1.74113 -6.396469,-1.74113 z"
         id="path883"
         inkscape:connector-curvature="0"
         sodipodi:nodetypes="cssssscsssssc" />
      <path
         sodipodi:nodetypes="czssascsscsc"
         inkscape:connector-curvature="0"
         id="path885"
         d="m 119.38655,110.28067 c 8.51871,2.14447 7.08675,15.03853 7.47566,17.57291 0.38891,2.53438 -2.15736,9.68304 9.61723,14.58326 10.60827,4.41483 20.92658,-2.2592 21.02531,-9.71733 0.15215,-11.49358 -0.96308,-16.92703 -7.38737,-19.86981 -4.32644,-1.98181 -11.74598,0.50381 -13.38233,4.97237 -3.39155,9.26169 6.12556,13.66788 8.21408,7.59124 -4.11081,3.52615 -7.01026,-3.13061 -3.87063,-7.36788 2.97567,-4.01599 7.85131,-0.81679 9.90692,3.41202 2.18763,4.50039 2.04432,17.46532 -5.79524,17.6049 -15.29297,0.10575 -14.92823,-5.70886 -15.72821,-13.11372 -1.69172,-15.659 -6.88712,-15.78077 -10.07542,-15.66796 z"
         style="fill:#ffffff;fill-opacity:0.97683399;stroke:none;stroke-width:0.22634968px;stroke-linecap:butt;stroke-linejoin:miter;stroke-opacity:1" />
      <text
         transform="rotate(-39.428869)"
         id="text891"
         y="132.37999"
         x="-62.627071"
         style="font-style:normal;font-weight:normal;font-size:20.68217659px;line-height:1.25;font-family:sans-serif;letter-spacing:0px;word-spacing:0px;fill:#ffffff;fill-opacity:0.97683399;stroke:none;stroke-width:0.51705444"
         xml:space="preserve"><tspan
           style="fill:#ffffff;fill-opacity:0.97683399;stroke-width:0.51705444"
           y="132.37999"
           x="-62.627071"
           id="tspan889"
           sodipodi:role="line">Get Some Air</tspan></text>
    </g>
  </g>
</svg>
